# BenchIT-RawFile
#
#########################################################
beginofdefinitions
bitfile="InX8_2199M__0__2015_11_10__18_51_28.bit"
kernelname="arch_x86_64.memory_latency.C.pthread.0.read"
numfunctions=8
repeatct=3

xaxistext="data set size [Byte]"
y1axistext="latency [cycles]"
tlegendfunction1="memory latency CPU28 locally (CPU cycles)"
y2axistext="latency [cycles]"
tlegendfunction2="memory latency CPU28 accessing CPU29 memory (CPU cycles)"
y3axistext="latency [cycles]"
tlegendfunction3="memory latency CPU28 accessing CPU30 memory (CPU cycles)"
y4axistext="latency [cycles]"
tlegendfunction4="memory latency CPU28 accessing CPU31 memory (CPU cycles)"
y5axistext="latency [ns]"
tlegendfunction5="memory latency CPU28 locally (time)"
y6axistext="latency [ns]"
tlegendfunction6="memory latency CPU28 accessing CPU29 memory (time)"
y7axistext="latency [ns]"
tlegendfunction7="memory latency CPU28 accessing CPU30 memory (time)"
y8axistext="latency [ns]"
tlegendfunction8="memory latency CPU28 accessing CPU31 memory (time)"
endofdefinitions
beginofdata
16384	5	5	5	344	466	457	555	558	564	457	475	459	2.27395	2.27395	2.27395	156.447	211.932	207.839	252.408	253.772	256.501	207.839	216.025	208.748	
17644.4	5	5	5	345	477	454	554	569	554	466	470	445	2.27395	2.27395	2.27395	156.902	216.934	206.474	251.953	258.775	251.953	211.932	213.751	202.381	
19001.7	5	5	5	358	471	451	561	567	569	456	459	463	2.27395	2.27395	2.27395	162.815	214.206	205.11	255.137	257.865	258.775	207.384	208.748	210.567	
20463.4	5	5	5	345	467	458	557	555	564	456	465	449	2.27395	2.27395	2.27395	156.902	212.387	208.293	253.318	252.408	256.501	207.384	211.477	204.2	
22037.5	5	5	5	353	456	498	559	591	562	462	512	496	2.27395	2.27395	2.27395	160.541	207.384	226.485	254.227	268.78	255.592	210.113	232.852	225.575	
23732.8	5	5	5	345	348	346	559	575	555	467	456	470	2.27395	2.27395	2.27395	156.902	158.267	157.357	254.227	261.504	252.408	212.387	207.384	213.751	
25558.5	4	4	4	349	476	460	554	578	577	454	510	488	1.81916	1.81916	1.81916	158.721	216.48	209.203	251.953	262.868	262.413	206.474	231.943	221.937	
27524.6	4	4	4	346	488	468	558	570	564	457	491	504	1.81916	1.81916	1.81916	157.357	221.937	212.841	253.772	259.23	256.501	207.839	223.302	229.214	
29641.9	4	4	4	350	469	475	555	572	566	461	476	468	1.81916	1.81916	1.81916	159.176	213.296	216.025	252.408	260.139	257.411	209.658	216.48	212.841	
31922.1	5	5	5	346	455	474	558	571	568	460	482	486	2.27395	2.27395	2.27395	157.357	206.929	215.57	253.772	259.685	258.32	209.203	219.208	221.028	
34377.8	14	14	14	354	455	456	551	556	557	454	449	460	6.36705	6.36705	6.36705	160.995	206.929	207.384	250.589	252.863	253.318	206.474	204.2	209.203	
37022.3	14	14	14	357	361	360	555	553	554	456	457	457	6.36705	6.36705	6.36705	162.36	164.179	163.724	252.408	251.498	251.953	207.384	207.839	207.839	
39870.3	14	14	14	361	474	469	549	561	558	454	462	463	6.36705	6.36705	6.36705	164.179	215.57	213.296	249.679	255.137	253.772	206.474	210.113	210.567	
42937.3	14	14	14	365	455	463	548	559	557	455	463	458	6.36705	6.36705	6.36705	165.998	206.929	210.567	249.224	254.227	253.318	206.929	210.567	208.293	
46240.3	14	14	14	456	462	452	547	553	552	460	453	455	6.36705	6.36705	6.36705	207.384	210.113	205.565	248.77	251.498	251.044	209.203	206.02	206.929	
49797.4	13	14	13	453	456	458	544	547	551	457	453	460	5.91226	6.36705	5.91226	206.02	207.384	208.293	247.405	248.77	250.589	207.839	206.02	209.203	
53628.1	14	14	14	458	456	459	544	552	549	453	456	458	6.36705	6.36705	6.36705	208.293	207.384	208.748	247.405	251.044	249.679	206.02	207.384	208.293	
57753.5	13	13	13	364	363	368	546	546	544	457	454	455	5.91226	5.91226	5.91226	165.543	165.088	167.362	248.315	248.315	247.405	207.839	206.474	206.929	
62196.2	13	13	13	452	460	459	541	540	540	457	453	454	5.91226	5.91226	5.91226	205.565	209.203	208.748	246.041	245.586	245.586	207.839	206.02	206.474	
66980.7	13	13	13	452	457	459	545	542	542	455	451	452	5.91226	5.91226	5.91226	205.565	207.839	208.748	247.86	246.496	246.496	206.929	205.11	205.565	
72133.2	13	13	13	455	454	450	546	546	546	448	452	459	5.91226	5.91226	5.91226	206.929	206.474	204.655	248.315	248.315	248.315	203.746	205.565	208.748	
77682.1	13	13	13	456	456	459	546	545	547	451	455	458	5.91226	5.91226	5.91226	207.384	207.384	208.748	248.315	247.86	248.77	205.11	206.929	208.293	
83657.9	13	13	13	453	456	455	545	543	542	453	452	453	5.91226	5.91226	5.91226	206.02	207.384	206.929	247.86	246.951	246.496	206.02	205.565	206.02	
90093.3	13	13	13	451	455	451	546	545	540	453	453	454	5.91226	5.91226	5.91226	205.11	206.929	205.11	248.315	247.86	245.586	206.02	206.02	206.474	
97023.8	13	13	13	365	366	368	470	469	470	363	365	364	5.91226	5.91226	5.91226	165.998	166.453	167.362	213.751	213.296	213.751	165.088	165.998	165.543	
104487	13	13	13	456	453	456	547	550	551	456	459	460	5.91226	5.91226	5.91226	207.384	206.02	207.384	248.77	250.134	250.589	207.384	208.748	209.203	
112525	13	13	12	457	453	454	547	549	547	455	455	455	5.91226	5.91226	5.45747	207.839	206.02	206.474	248.77	249.679	248.77	206.929	206.929	206.929	
121181	12	12	12	456	460	459	549	546	551	455	454	457	5.45747	5.45747	5.45747	207.384	209.203	208.748	249.679	248.315	250.589	206.929	206.474	207.839	
130503	12	12	12	455	458	456	549	548	548	455	456	456	5.45747	5.45747	5.45747	206.929	208.293	207.384	249.679	249.224	249.224	206.929	207.384	207.384	
140542	12	12	12	373	368	369	551	550	550	457	455	455	5.45747	5.45747	5.45747	169.636	167.362	167.817	250.589	250.134	250.134	207.839	206.929	206.929	
151354	12	12	12	458	459	459	546	549	551	458	460	460	5.45747	5.45747	5.45747	208.293	208.748	208.748	248.315	249.679	250.589	208.293	209.203	209.203	
162997	12	12	12	459	457	461	553	549	551	459	459	460	5.45747	5.45747	5.45747	208.748	207.839	209.658	251.498	249.679	250.589	208.748	208.748	209.203	
175535	12	12	12	461	463	462	554	554	551	461	461	461	5.45747	5.45747	5.45747	209.658	210.567	210.113	251.953	251.953	250.589	209.658	209.658	209.658	
189039	13	14	14	462	463	464	554	553	553	463	463	462	5.91226	6.36705	6.36705	210.113	210.567	211.022	251.953	251.498	251.498	210.567	210.567	210.113	
203580	14	14	13	464	463	465	555	553	554	463	465	463	6.36705	6.36705	5.91226	211.022	210.567	211.477	252.408	251.498	251.953	210.567	211.477	210.567	
219241	15	15	15	376	377	377	548	552	551	463	462	462	6.82184	6.82184	6.82184	171.001	171.456	171.456	249.224	251.044	250.589	210.567	210.113	210.113	
236106	17	16	16	463	465	462	550	551	550	463	462	460	7.73142	7.27663	7.27663	210.567	211.477	210.113	250.134	250.589	250.134	210.567	210.113	209.203	
254269	20	20	20	463	460	461	547	551	550	463	460	460	9.09578	9.09578	9.09578	210.567	209.203	209.658	248.77	250.589	250.134	210.567	209.203	209.203	
273829	41	41	41	452	452	480	511	526	510	452	452	451	18.6464	18.6464	18.6464	205.565	205.565	218.299	232.397	239.219	231.943	205.565	205.565	205.11	
294893	42	42	42	466	451	482	527	527	512	464	480	479	19.1011	19.1011	19.1011	211.932	205.11	219.208	239.674	239.674	232.852	211.022	218.299	217.844	
317578	42	42	42	455	482	456	527	543	514	467	455	482	19.1011	19.1011	19.1011	206.929	219.208	207.384	239.674	246.951	233.762	212.387	206.929	219.208	
342008	43	43	43	380	382	381	512	513	514	452	453	451	19.5559	19.5559	19.5559	172.82	173.729	173.275	232.852	233.307	233.762	205.565	206.02	205.11	
368317	42	43	43	454	454	457	516	532	544	466	483	482	19.1011	19.5559	19.5559	206.474	206.474	207.839	234.671	241.948	247.405	211.932	219.663	219.208	
396651	43	43	43	469	454	456	525	544	516	455	483	468	19.5559	19.5559	19.5559	213.296	206.474	207.384	238.764	247.405	234.671	206.929	219.663	212.841	
427163	43	43	43	468	486	472	515	545	512	468	455	482	19.5559	19.5559	19.5559	212.841	221.028	214.661	234.216	247.86	232.852	212.841	206.929	219.208	
460023	44	43	44	457	486	457	531	518	547	454	473	457	20.0107	19.5559	20.0107	207.839	221.028	207.839	241.493	235.581	248.77	206.474	215.115	207.839	
495411	43	43	44	471	471	458	531	532	547	455	483	458	19.5559	19.5559	20.0107	214.206	214.206	208.293	241.493	241.948	248.77	206.929	219.663	208.293	
533521	44	44	44	470	485	458	532	548	518	457	485	455	20.0107	20.0107	20.0107	213.751	220.573	208.293	241.948	249.224	235.581	207.839	220.573	206.929	
574562	44	44	44	472	457	470	531	548	549	456	457	456	20.0107	20.0107	20.0107	214.661	207.839	213.751	241.493	249.224	249.679	207.384	207.839	207.384	
618761	44	44	44	384	384	385	473	473	472	385	384	385	20.0107	20.0107	20.0107	174.639	174.639	175.094	215.115	215.115	214.661	175.094	174.639	175.094	
666359	44	44	44	457	473	471	518	546	532	470	457	457	20.0107	20.0107	20.0107	207.839	215.115	214.206	235.581	248.315	241.948	213.751	207.839	207.839	
717619	44	44	44	458	487	488	517	548	549	473	458	486	20.0107	20.0107	20.0107	208.293	221.482	221.937	235.126	249.224	249.679	215.115	208.293	221.028	
772823	44	45	44	458	487	487	521	519	517	456	457	486	20.0107	20.4655	20.0107	208.293	221.482	221.482	236.945	236.036	235.126	207.384	207.839	221.028	
832273	44	45	44	385	389	388	521	518	520	457	457	458	20.0107	20.4655	20.0107	175.094	176.913	176.458	236.945	235.581	236.49	207.839	207.839	208.293	
896296	45	45	44	458	461	459	522	549	548	474	486	457	20.4655	20.4655	20.0107	208.293	209.658	208.748	237.4	249.679	249.224	215.57	221.028	207.839	
965244	44	44	44	473	457	488	533	549	519	460	488	488	20.0107	20.0107	20.0107	215.115	207.839	221.937	242.403	249.679	236.036	209.203	221.937	221.937	
1.0395e+06	44	44	44	473	460	487	533	550	535	472	488	460	20.0107	20.0107	20.0107	215.115	209.203	221.482	242.403	250.134	243.312	214.661	221.937	209.203	
1.11946e+06	44	44	44	472	488	456	531	548	518	472	486	487	20.0107	20.0107	20.0107	214.661	221.937	207.384	241.493	249.224	235.581	214.661	221.028	221.482	
1.20558e+06	44	44	44	470	471	486	517	545	546	471	456	457	20.0107	20.0107	20.0107	213.751	214.206	221.028	235.126	247.86	248.315	214.206	207.384	207.839	
1.29832e+06	44	44	44	384	383	384	516	514	514	456	457	457	20.0107	20.0107	20.0107	174.639	174.184	174.639	234.671	233.762	233.762	207.384	207.839	207.839	
1.39819e+06	44	44	43	454	484	469	529	517	513	457	456	485	20.0107	20.0107	19.5559	206.474	220.118	213.296	240.583	235.126	233.307	207.839	207.384	220.573	
1.50575e+06	44	44	44	469	456	454	530	512	544	456	485	484	20.0107	20.0107	20.0107	213.296	207.384	206.474	241.038	232.852	247.405	207.384	220.573	220.118	
1.62158e+06	44	44	44	469	485	469	529	528	541	456	455	458	20.0107	20.0107	20.0107	213.296	220.573	213.296	240.583	240.129	246.041	207.384	206.929	208.293	
1.74632e+06	44	44	43	468	456	453	526	514	542	455	455	456	20.0107	20.0107	19.5559	212.841	207.384	206.02	239.219	233.762	246.496	206.929	206.929	207.384	
1.88066e+06	43	43	43	469	485	456	511	527	512	468	484	470	19.5559	19.5559	19.5559	213.296	220.573	207.384	232.397	239.674	232.852	212.841	220.118	213.751	
2.02533e+06	43	43	43	383	387	386	511	513	513	454	454	455	19.5559	19.5559	19.5559	174.184	176.003	175.549	232.397	233.307	233.307	206.474	206.474	206.929	
2.18113e+06	43	43	43	454	476	484	512	539	512	454	456	483	19.5559	19.5559	19.5559	206.474	216.48	220.118	232.852	245.131	232.852	206.474	207.384	219.663	
2.34891e+06	43	43	43	455	453	483	525	512	511	475	453	469	19.5559	19.5559	19.5559	206.929	206.02	219.663	238.764	232.852	232.397	216.025	206.02	213.296	
2.5296e+06	43	43	43	473	482	482	721	539	511	463	454	453	19.5559	19.5559	19.5559	215.115	219.208	219.208	327.903	245.131	232.397	210.567	206.474	206.02	
2.72419e+06	43	43	43	493	470	452	612	538	526	485	454	483	19.5559	19.5559	19.5559	224.211	213.751	205.565	278.331	244.677	239.219	220.573	206.474	219.663	
2.93375e+06	43	43	43	472	467	483	589	509	539	471	483	483	19.5559	19.5559	19.5559	214.661	212.387	219.663	267.871	231.488	245.131	214.206	219.663	219.663	
3.15944e+06	43	43	43	498	453	483	622	524	526	483	483	456	19.5559	19.5559	19.5559	226.485	206.02	219.663	282.879	238.31	239.219	219.663	219.663	207.384	
3.40248e+06	43	43	43	482	456	482	613	538	538	491	468	482	19.5559	19.5559	19.5559	219.208	207.384	219.208	278.786	244.677	244.677	223.302	212.841	219.208	
3.66422e+06	43	43	43	514	455	450	610	539	524	544	466	468	19.5559	19.5559	19.5559	233.762	206.929	204.655	277.421	245.131	238.31	247.405	211.932	212.841	
3.94609e+06	43	43	43	381	381	381	474	474	507	381	383	452	19.5559	19.5559	19.5559	173.275	173.275	173.275	215.57	215.57	230.578	173.275	174.184	205.565	
4.24965e+06	43	43	42	493	452	478	683	522	507	493	454	483	19.5559	19.5559	19.1011	224.211	205.565	217.389	310.621	237.4	230.578	224.211	206.474	219.663	
4.57655e+06	43	43	43	515	468	469	625	525	536	517	482	468	19.5559	19.5559	19.5559	234.216	212.841	213.296	284.243	238.764	243.767	235.126	219.208	212.841	
4.92861e+06	43	43	43	395	424	424	510	508	508	453	454	453	19.5559	19.5559	19.5559	179.642	192.831	192.831	231.943	231.033	231.033	206.02	206.474	206.02	
5.30774e+06	43	43	43	508	454	452	596	508	510	517	456	484	19.5559	19.5559	19.5559	231.033	206.474	205.565	271.054	231.033	231.943	235.126	207.384	220.118	
5.71605e+06	42	43	43	481	454	453	604	507	510	486	468	472	19.1011	19.5559	19.5559	218.754	206.474	206.02	274.693	230.578	231.943	221.028	212.841	214.661	
6.15576e+06	43	43	43	500	453	455	674	508	522	531	468	453	19.5559	19.5559	19.5559	227.395	206.02	206.929	306.528	231.033	237.4	241.493	212.841	206.02	
6.62929e+06	43	43	43	522	454	453	699	509	524	512	454	454	19.5559	19.5559	19.5559	237.4	206.474	206.02	317.898	231.488	238.31	232.852	206.474	206.474	
7.13926e+06	42	42	43	497	466	453	637	537	508	505	468	468	19.1011	19.1011	19.5559	226.03	211.932	206.02	289.701	244.222	231.033	229.669	212.841	212.841	
7.68845e+06	43	42	42	415	419	416	508	507	508	453	454	452	19.5559	19.1011	19.1011	188.738	190.557	189.192	231.033	230.578	231.033	206.02	206.474	205.565	
8.27989e+06	43	42	42	505	452	455	628	523	523	508	454	454	19.5559	19.1011	19.1011	229.669	205.565	206.929	285.608	237.855	237.855	231.033	206.474	206.474	
8.91683e+06	42	42	42	488	453	453	616	509	525	534	466	453	19.1011	19.1011	19.1011	221.937	206.02	206.02	280.15	231.488	238.764	242.857	211.932	206.02	
9.60276e+06	42	42	42	473	452	453	627	509	509	514	467	454	19.1011	19.1011	19.1011	215.115	205.565	206.02	285.153	231.488	231.488	233.762	212.387	206.474	
1.03415e+07	42	42	43	522	454	452	623	508	526	510	454	453	19.1011	19.1011	19.5559	237.4	206.474	205.565	283.334	231.033	239.219	231.943	206.474	206.02	
1.1137e+07	42	42	42	517	451	451	607	507	507	500	453	451	19.1011	19.1011	19.1011	235.126	205.11	205.11	276.057	230.578	230.578	227.395	206.02	205.11	
1.19937e+07	42	42	42	430	437	438	500	507	508	431	434	434	19.1011	19.1011	19.1011	195.559	198.743	199.198	227.395	230.578	231.033	196.014	197.379	197.379	
1.29163e+07	42	42	42	511	454	450	630	509	508	504	453	451	19.1011	19.1011	19.1011	232.397	206.474	204.655	286.517	231.488	231.033	229.214	206.02	205.11	
1.39099e+07	43	43	43	502	455	453	562	509	508	507	452	452	19.5559	19.5559	19.5559	228.304	206.929	206.02	255.592	231.488	231.033	230.578	205.565	205.565	
1.498e+07	45	44	43	495	450	453	564	508	505	462	450	450	20.4655	20.0107	19.5559	225.121	204.655	206.02	256.501	231.033	229.669	210.113	204.655	204.655	
1.61323e+07	46	47	48	478	445	447	548	500	499	506	444	449	20.9203	21.3751	21.8299	217.389	202.381	203.291	249.224	227.395	226.94	230.123	201.926	204.2	
1.73733e+07	288	217	217	304	229	244	318	245	242	285	230	228	130.979	98.6893	98.6893	138.256	104.147	110.969	144.623	111.423	110.059	129.615	104.602	103.692	
1.87098e+07	260	216	216	240	228	228	314	244	243	236	213	214	118.245	98.2345	98.2345	109.149	103.692	103.692	142.804	110.969	110.514	107.33	96.8701	97.3249	
2.0149e+07	231	241	230	246	244	244	264	251	230	226	264	215	105.056	109.604	104.602	111.878	110.969	110.969	120.064	114.152	104.602	102.782	120.064	97.7797	
2.1699e+07	217	239	216	222	261	245	277	269	214	240	258	259	98.6893	108.695	98.2345	100.963	118.7	111.423	125.977	122.338	97.3249	109.149	117.336	117.79	
2.33682e+07	231	268	231	261	280	248	330	267	214	215	288	244	105.056	121.884	105.056	118.7	127.341	112.788	150.08	121.429	97.3249	97.7797	130.979	110.969	
2.51658e+07	224	289	222	229	243	229	245	245	246	230	215	214	101.873	131.434	100.963	104.147	110.514	104.147	111.423	111.423	111.878	104.602	97.7797	97.3249	
endofdata
